<?xml version="1.0" encoding="utf-8"?>
<!-- Generator: Adobe Illustrator 16.0.0, SVG Export Plug-In . SVG Version: 6.00 Build 0)  -->
<!DOCTYPE svg PUBLIC "-//W3C//DTD SVG 1.1//EN" "http://www.w3.org/Graphics/SVG/1.1/DTD/svg11.dtd">
<svg version="1.1" id="arvorismo-barco" xmlns="http://www.w3.org/2000/svg" xmlns:xlink="http://www.w3.org/1999/xlink" x="0px"
	 y="0px" width="242.43px" height="184.824px" viewBox="0 0 242.43 184.824" enable-background="new 0 0 242.43 184.824"
	 xml:space="preserve">
<g>
	
		<image overflow="visible" enable-background="new    " width="242" height="185" xlink:href="masp.png"  transform="matrix(0.8574 0 0 0.8574 28.7454 13.104)">
	</image>
	<g>
		<polygon id="b-top" fill="#476CB5" points="65.432,39.835 16.204,67.846 10.051,64.237 59.068,36.335 		"/>
		<path id="b-left" fill="#293E93" d="M16.204,110.705l-6.255-3.602V64.241l6.255,3.502V110.705z M22.464,107.205l-6.26-2.545v4.666
			l6.26,4.133C22.571,113.464,22.571,107.205,22.464,107.205z"/>
		<polygon fill="#876E54" points="39.44,126.408 33.922,123.333 33.922,100.734 39.44,103.811 		"/>
		<polygon id="b-placa" fill="#3856A0" points="61.718,86.835 61.718,91.079 22.464,113.359 22.464,107.205 16.204,110.705 
			16.204,67.846 65.432,39.835 65.432,84.712 		"/>
		<path id="b-texto_1_" fill="#EDEDED" d="M19.898,93.6l-1.451,0.869v-2.539l1.451-0.867V93.6z M21.339,92.724l-1.452,0.868v-2.538
			l1.452-0.866V92.724z M34.095,83.038l1.453-0.869v2.541l-1.453,0.867V83.038z M34.095,88.185l1.453-0.869v-2.537l-1.453,0.865
			V88.185z M34.095,90.792l1.453-0.869v-2.536l-1.453,0.866V90.792z M34.095,93.328l1.453-0.864v-2.541l-1.453,0.869V93.328z
			 M18.447,97.018l1.453-0.869v-2.536l-1.453,0.864V97.018z M18.447,99.625l1.453-0.867v-2.538l-1.453,0.864V99.625z
			 M18.447,102.162l1.453-0.865v-2.539l-1.453,0.867V102.162z M27.663,89.446l-1.452,0.87v-2.539l1.452-0.866V89.446z
			 M26.211,92.864l1.454-0.869V89.46l-1.454,0.865V92.864z M26.211,95.473l1.454-0.867v-2.538l-1.454,0.866V95.473z M26.211,98.007
			l1.454-0.862v-2.539l-1.454,0.867V98.007z M32.054,86.751l-1.45,0.869v-2.537l1.45-0.867V86.751z M30.604,90.169l1.452-0.869
			v-2.536l-1.452,0.864V90.169z M30.604,92.776l1.452-0.867V89.37l-1.452,0.865V92.776z M30.604,95.312l1.452-0.863v-2.54
			l-1.452,0.867V95.312z M35.544,92.532l1.449-0.865v-2.541l-1.449,0.869V92.532z M36.993,91.663l1.45-0.871v-2.539l-1.45,0.871
			V91.663z M38.588,90.866l1.449-0.871V87.46l-1.449,0.865V90.866z M35.544,84.777l1.449-0.87v-2.539l-1.449,0.871V84.777z
			 M36.993,83.98l1.45-0.87v-2.539l-1.45,0.869V83.98z M38.588,83.11l1.449-0.867v-2.539l-1.449,0.867V83.11z M40.775,83.888
			l1.453-0.868v2.539l-1.453,0.868V83.888z M42.205,85.54l1.454-0.869v2.541l-1.454,0.867V85.54z M43.633,86.087l1.454-0.868v2.54
			l-1.454,0.867V86.087z M45.102,85.192l1.454-0.869v2.539l-1.454,0.867V85.192z M46.573,84.292l1.454-0.869v2.541l-1.454,0.867
			V84.292z M48.002,82.361l1.453-0.868v2.539l-1.453,0.866V82.361z M47.031,80.398l1.453-0.868v2.54l-1.453,0.867V80.398z
			 M45.615,81.257l1.454-0.868v2.539l-1.454,0.866V81.257z M41.199,83.646l1.449-0.87v-2.539l-1.449,0.869V83.646z M42.594,80.76
			l1.451-0.869V77.35l-1.451,0.869V80.76z M44.017,79.936l1.449-0.869V76.53l-1.449,0.865V79.936z M45.501,79.04l1.449-0.869v-2.536
			l-1.449,0.864V79.04z M35.544,88.691l1.449-0.866v-2.539l-1.449,0.868V88.691z M36.993,87.821l1.45-0.871v-2.539l-1.45,0.871
			V87.821z M27.658,93.046l1.449-0.864v-2.541l-1.449,0.868V93.046z M29.108,92.178l1.449-0.87v-2.541l-1.449,0.87V92.178z
			 M57.007,72.546l1.451-0.865v-2.539l-1.451,0.868V72.546z M51.463,74.978l1.452-0.865v-2.541l-1.452,0.87V74.978z M52.929,74.099
			l1.452-0.865v-2.54l-1.452,0.869V74.099z M54.406,74.253l1.452-0.863v-2.541l-1.452,0.867V74.253z M50.047,77.436l1.452-0.864
			V74.03l-1.452,0.869V77.436z M50.068,79.983l1.451-0.865v-2.539l-1.451,0.867V79.983z M50.068,82.512l1.451-0.865v-2.541
			l-1.451,0.87V82.512z M51.501,80.489l1.451-0.865v-2.541l-1.451,0.869V80.489z M52.952,79.618l1.451-0.865v-2.539l-1.451,0.869
			V79.618z M50.068,85.04l1.451-0.867v-2.538l-1.451,0.868V85.04z M54.457,76.802l1.451-0.865v-2.54l-1.451,0.869V76.802z
			 M54.457,79.329l1.451-0.865v-2.539l-1.451,0.869V79.329z M54.457,81.857l1.451-0.864v-2.541l-1.451,0.869V81.857z M57.007,75.155
			l1.451-0.869v-2.541l-1.451,0.869V75.155z M57.007,77.691l1.451-0.87v-2.535l-1.451,0.868V77.691z M57.007,80.3l1.451-0.868
			v-2.537l-1.451,0.87V80.3z M58.455,71.749l1.452-0.865v-2.54l-1.452,0.868V71.749z M59.906,70.88l1.45-0.87v-2.535l-1.45,0.864
			V70.88z M61.356,70.01l1.447-0.868v-2.537l-1.447,0.87V70.01z M58.455,76.895l1.452-0.869v-2.536l-1.452,0.869V76.895z
			 M59.906,76.024l1.45-0.865v-2.541l-1.45,0.871V76.024z M61.356,75.228l1.447-0.867v-2.54l-1.447,0.871V75.228z M62.949,71.749
			l1.45-0.865v-2.54l-1.45,0.868V71.749z M62.949,76.895l1.45-0.869v-2.536l-1.45,0.869V76.895z M21.332,92.726l1.45-0.871v-2.54
			l-1.45,0.871V92.726z M22.805,91.864l1.448-0.867V88.46l-1.448,0.865V91.864z M21.339,100.529l-1.452,0.869v-2.539l1.452-0.865
			V100.529z M21.332,100.531l1.45-0.871v-2.539l-1.45,0.869V100.531z M22.805,99.671l1.448-0.868v-2.537l-1.448,0.864V99.671z"/>
		<path id="b-texto_2_" fill="#EDEDED" d="M22.102,74.917l-1.541,0.924v-2.694l1.541-0.92V74.917z M23.634,73.987l-1.542,0.924
			v-2.695l1.542-0.922V73.987z M20.561,78.548l1.544-0.924v-2.693l-1.544,0.92V78.548z M20.561,81.316l1.544-0.922V77.7l-1.544,0.92
			V81.316z M20.561,84.01l1.544-0.917v-2.697l-1.544,0.922V84.01z M23.626,73.989l1.539-0.924v-2.697l-1.539,0.924V73.989z
			 M25.192,73.077l1.538-0.924V69.46l-1.538,0.92V73.077z M23.634,82.277L22.092,83.2v-2.695l1.542-0.92V82.277z M23.626,82.278
			l1.539-0.924v-2.697l-1.539,0.924V82.278z M25.192,81.366l1.538-0.923v-2.694l-1.538,0.92V81.366z M31.409,69.641l-1.542,0.924
			V67.87l1.542-0.922V69.641z M32.942,68.71l-1.541,0.925v-2.696l1.541-0.921V68.71z M29.868,73.27l1.544-0.923v-2.694l-1.544,0.921
			V73.27z M29.868,76.04l1.544-0.924v-2.693l-1.544,0.92V76.04z M29.868,78.731l1.544-0.918v-2.697l-1.544,0.924V78.731z
			 M37.595,66.054l-1.543,0.925v-2.696l1.543-0.92V66.054z M36.052,69.685l1.544-0.924v-2.693l-1.544,0.919V69.685z M36.052,72.454
			l1.544-0.924v-2.693l-1.544,0.92V72.454z M36.052,75.146l1.544-0.918V71.53l-1.544,0.924V75.146z M41.481,64.05l-1.542,0.924
			v-2.695l1.542-0.92V64.05z M43.737,65.437l-1.542,0.924v-2.695l1.542-0.92V65.437z M45.84,64.148l-1.542,0.925v-2.697l1.542-0.92
			V64.148z M46.656,60.884l-1.542,0.925v-2.694l1.542-0.922V60.884z M44.723,67.523l-1.542,0.925v-2.695l1.542-0.922V67.523z
			 M43.092,63.118l-1.542,0.924v-2.695l1.542-0.922V63.118z M39.939,67.68l1.544-0.923v-2.694l-1.544,0.92V67.68z M39.939,70.45
			l1.544-0.924v-2.693l-1.544,0.92V70.45z M39.939,73.142l1.544-0.917v-2.697l-1.544,0.923V73.142z M48.18,59.97l-1.542,0.924
			v-2.695l1.542-0.92V59.97z M46.638,63.6l1.543-0.923v-2.694l-1.543,0.92V63.6z M46.638,66.37l1.543-0.924v-2.693l-1.543,0.92
			V66.37z M46.638,69.061l1.543-0.917v-2.697l-1.543,0.924V69.061z M32.933,68.712l1.54-0.924v-2.697l-1.54,0.925V68.712z
			 M34.498,67.8l1.539-0.924v-2.693l-1.539,0.92V67.8z M32.942,76.999l-1.541,0.924v-2.695l1.541-0.921V76.999z M32.933,77.001
			l1.54-0.924V73.38l-1.54,0.926V77.001z M34.498,76.089l1.539-0.924v-2.693l-1.539,0.92V76.089z M52.132,57.958l-1.542,0.924
			v-2.695l1.542-0.92V57.958z M53.663,57.027l-1.541,0.925v-2.697l1.541-0.92V57.027z M50.59,61.587l1.544-0.922v-2.694l-1.544,0.92
			V61.587z M50.59,64.357l1.544-0.923v-2.693l-1.544,0.918V64.357z M50.59,67.05l1.544-0.918v-2.696l-1.544,0.923V67.05z
			 M58.318,54.37l-1.543,0.926V52.6l1.543-0.92V54.37z M56.775,58.001l1.544-0.924v-2.691l-1.544,0.918V58.001z M56.775,60.771
			l1.544-0.923v-2.694l-1.544,0.92V60.771z M56.775,63.464l1.544-0.918v-2.697l-1.544,0.923V63.464z M53.656,57.03l1.54-0.925
			v-2.696l-1.54,0.924V57.03z M55.22,56.116l1.539-0.923v-2.694l-1.539,0.92V56.116z M53.663,65.316l-1.541,0.925v-2.697
			l1.541-0.918V65.316z M53.656,65.318l1.54-0.924v-2.696l-1.54,0.924V65.318z M55.22,64.407l1.539-0.925v-2.694l-1.539,0.92V64.407
			z"/>
		<polygon fill="#B28C66" points="39.44,126.408 44.849,123.333 44.849,100.628 39.44,103.703 		"/>
		<polygon opacity="0.2" fill="#A58799" enable-background="new    " points="33.922,50.765 59.068,36.335 65.432,39.835 
			65.432,55.433 52.699,48.111 47.186,51.188 41.879,48.111 35.512,51.719 		"/>
	</g>
</g>
</svg>
